EESchema Schematic File Version 2
LIBS:power
LIBS:device
LIBS:transistors
LIBS:conn
LIBS:linear
LIBS:regul
LIBS:74xx
LIBS:cmos4000
LIBS:adc-dac
LIBS:memory
LIBS:xilinx
LIBS:microcontrollers
LIBS:dsp
LIBS:microchip
LIBS:analog_switches
LIBS:motorola
LIBS:texas
LIBS:intel
LIBS:audio
LIBS:interface
LIBS:digital-audio
LIBS:philips
LIBS:display
LIBS:cypress
LIBS:siliconi
LIBS:opto
LIBS:atmel
LIBS:contrib
LIBS:valves
LIBS:xl4001
EELAYER 25 0
EELAYER END
$Descr A4 11693 8268
encoding utf-8
Sheet 1 1
Title ""
Date ""
Rev ""
Comp ""
Comment1 ""
Comment2 ""
Comment3 ""
Comment4 ""
$EndDescr
$Comp
L XL4001 D1
U 1 1 571F1072
P 4400 2700
F 0 "D1" H 4400 3150 60  0000 C CNN
F 1 "XL4001" V 4400 2750 60  0000 C CNN
F 2 "Local:SOIC-8-1EP_3.9x4.9mm_Pitch1.27mm" H 4350 2550 60  0001 C CNN
F 3 "" H 4350 2550 60  0000 C CNN
	1    4400 2700
	1    0    0    -1  
$EndComp
$Comp
L GND #PWR3
U 1 1 571F10B7
P 3900 3100
F 0 "#PWR3" H 3900 2850 50  0001 C CNN
F 1 "GND" H 3900 2950 50  0000 C CNN
F 2 "" H 3900 3100 60  0000 C CNN
F 3 "" H 3900 3100 60  0000 C CNN
	1    3900 3100
	1    0    0    -1  
$EndComp
Wire Wire Line
	4000 3000 3900 3000
Wire Wire Line
	3900 3000 3900 3100
$Comp
L R R3
U 1 1 571F111E
P 4900 4850
F 0 "R3" V 4980 4850 50  0000 C CNN
F 1 "R24" V 4900 4850 50  0000 C CNN
F 2 "Local:R_1206" V 4830 4850 30  0001 C CNN
F 3 "" H 4900 4850 30  0000 C CNN
	1    4900 4850
	-1   0    0    -1  
$EndComp
Text Notes 6800 2800 0    60   ~ 0
/* R[CS] selection (maxima) */\nEQ[I[LED]]: I[LED] = 0.155 / R[CS];\nEQ[P[R[CS]]]: P[R[CS]] = I[LED]^2 * R[CS];\nEQ[R[CS]]: solve(EQ[I[LED]], R[CS]);\nPR[LED]: [I[LED]=650];\nEQ[R[CS]], PR[LED], numer;\nPR[R[CS]]: [R[CS]=0.24];\nPR[I[LED]]: EQ[I[LED]], PR[R[CS]];\nEQ[P[R[CS]]], PR[I[LED]], PR[R[CS]];
$Comp
L GND #PWR10
U 1 1 571F13EE
P 4900 5100
F 0 "#PWR10" H 4900 4850 50  0001 C CNN
F 1 "GND" H 4900 4950 50  0000 C CNN
F 2 "" H 4900 5100 60  0000 C CNN
F 3 "" H 4900 5100 60  0000 C CNN
	1    4900 5100
	1    0    0    -1  
$EndComp
Wire Wire Line
	4900 5000 4900 5100
Text GLabel 4900 2300 1    60   Input ~ 0
VIN
Wire Wire Line
	4800 2400 4900 2400
Wire Wire Line
	4900 2300 4900 2600
Wire Wire Line
	4900 2600 4800 2600
Connection ~ 4900 2400
Wire Wire Line
	4800 2800 4900 2800
Wire Wire Line
	4900 2800 4900 3100
Wire Wire Line
	4800 3000 5000 3000
Connection ~ 4900 3000
$Comp
L D_Schottky D2
U 1 1 571F14F5
P 4900 3250
F 0 "D2" H 4900 3350 50  0000 C CNN
F 1 "SS26" H 4900 3150 50  0000 C CNN
F 2 "Local:SMB_Standard" H 4900 3250 60  0001 C CNN
F 3 "" H 4900 3250 60  0000 C CNN
	1    4900 3250
	0    -1   1    0   
$EndComp
$Comp
L INDUCTOR_SMALL L1
U 1 1 571F15FC
P 5250 3000
F 0 "L1" H 5250 3100 50  0000 C CNN
F 1 "100uH" H 5250 2950 50  0000 C CNN
F 2 "Local:CTGS75F" H 5250 3000 60  0001 C CNN
F 3 "" H 5250 3000 60  0000 C CNN
	1    5250 3000
	1    0    0    -1  
$EndComp
Wire Wire Line
	5500 3000 5600 3000
Wire Wire Line
	4900 3400 4900 3500
$Comp
L GND #PWR5
U 1 1 571F171F
P 4900 3500
F 0 "#PWR5" H 4900 3250 50  0001 C CNN
F 1 "GND" H 4900 3350 50  0000 C CNN
F 2 "" H 4900 3500 60  0000 C CNN
F 3 "" H 4900 3500 60  0000 C CNN
	1    4900 3500
	1    0    0    -1  
$EndComp
$Comp
L CP C3
U 1 1 571F177A
P 5600 3250
F 0 "C3" H 5625 3350 50  0000 L CNN
F 1 "100u 35V" H 5400 3150 50  0000 L CNN
F 2 "Local:c_elec_6.3x7.7" H 5638 3100 30  0001 C CNN
F 3 "" H 5600 3250 60  0000 C CNN
	1    5600 3250
	1    0    0    -1  
$EndComp
Wire Wire Line
	5600 2900 5600 3100
$Comp
L CP C1
U 1 1 571F17C4
P 2300 2750
F 0 "C1" H 2325 2850 50  0000 L CNN
F 1 "470u 50V" H 2100 2650 50  0000 L CNN
F 2 "Local:c_elec_6.3x7.7" H 2338 2600 30  0001 C CNN
F 3 "" H 2300 2750 60  0000 C CNN
	1    2300 2750
	1    0    0    -1  
$EndComp
Wire Wire Line
	5600 3400 5600 3500
$Comp
L GND #PWR6
U 1 1 571F190F
P 5600 3500
F 0 "#PWR6" H 5600 3250 50  0001 C CNN
F 1 "GND" H 5600 3350 50  0000 C CNN
F 2 "" H 5600 3500 60  0000 C CNN
F 3 "" H 5600 3500 60  0000 C CNN
	1    5600 3500
	1    0    0    -1  
$EndComp
Text GLabel 2300 2500 1    60   Input ~ 0
VIN
$Comp
L GND #PWR1
U 1 1 571F19FC
P 2300 3000
F 0 "#PWR1" H 2300 2750 50  0001 C CNN
F 1 "GND" H 2300 2850 50  0000 C CNN
F 2 "" H 2300 3000 60  0000 C CNN
F 3 "" H 2300 3000 60  0000 C CNN
	1    2300 3000
	1    0    0    -1  
$EndComp
Wire Wire Line
	2300 2500 2300 2600
Wire Wire Line
	2300 2900 2300 3000
$Comp
L C C2
U 1 1 571F1A9C
P 2600 2750
F 0 "C2" H 2625 2850 50  0000 L CNN
F 1 "1u 50V" H 2500 2650 50  0000 L CNN
F 2 "Local:C_0805" H 2638 2600 30  0001 C CNN
F 3 "" H 2600 2750 60  0000 C CNN
	1    2600 2750
	1    0    0    -1  
$EndComp
Text GLabel 2600 2500 1    60   Input ~ 0
VIN
$Comp
L GND #PWR2
U 1 1 571F1B7F
P 2600 3000
F 0 "#PWR2" H 2600 2750 50  0001 C CNN
F 1 "GND" H 2600 2850 50  0000 C CNN
F 2 "" H 2600 3000 60  0000 C CNN
F 3 "" H 2600 3000 60  0000 C CNN
	1    2600 3000
	1    0    0    -1  
$EndComp
Wire Wire Line
	2600 2500 2600 2600
Wire Wire Line
	2600 2900 2600 3000
Text Notes 6800 4150 0    60   ~ 0
/* R1/R2 selection (maxima) */\nEQ[V[OUT]]: solve(1.3 * V[OUT] = 1.235 * (1 + R[2] / R[1]), V[OUT]);\nEQ[R[2]]: solve(EQ[V[OUT]], R[2]);\nPR[LED]: [V[OUT]=35];\nPR[R[1]]: [R[1]=3.3e3];\nEQ[R[2]], PR[LED], PR[R[1]];\nPR[R[2]]: [R[2]=120e3];\nEQ[V[OUT]], PR[R[1]], PR[R[2]];
$Comp
L R R2
U 1 1 571F1D08
P 3900 4850
F 0 "R2" V 3980 4850 50  0000 C CNN
F 1 "3K3" V 3900 4850 50  0000 C CNN
F 2 "Local:R_0603" V 3830 4850 30  0001 C CNN
F 3 "" H 3900 4850 30  0000 C CNN
	1    3900 4850
	-1   0    0    -1  
$EndComp
$Comp
L R R1
U 1 1 571F1D7F
P 3900 4350
F 0 "R1" V 3980 4350 50  0000 C CNN
F 1 "120K" V 3900 4350 50  0000 C CNN
F 2 "Local:R_0603" V 3830 4350 30  0001 C CNN
F 3 "" H 3900 4350 30  0000 C CNN
	1    3900 4350
	-1   0    0    -1  
$EndComp
Connection ~ 5600 3000
Text GLabel 5600 2900 1    60   Input ~ 0
VOUT
Text GLabel 3900 4100 1    60   Input ~ 0
VOUT
Wire Wire Line
	3900 4500 3900 4700
Wire Wire Line
	3900 4100 3900 4200
$Comp
L GND #PWR9
U 1 1 571F1F8A
P 3900 5100
F 0 "#PWR9" H 3900 4850 50  0001 C CNN
F 1 "GND" H 3900 4950 50  0000 C CNN
F 2 "" H 3900 5100 60  0000 C CNN
F 3 "" H 3900 5100 60  0000 C CNN
	1    3900 5100
	1    0    0    -1  
$EndComp
Wire Wire Line
	3900 5000 3900 5100
Wire Wire Line
	3900 4600 3800 4600
Connection ~ 3900 4600
Text GLabel 3800 4600 0    60   Input ~ 0
VFB
Text GLabel 3900 2800 0    60   Input ~ 0
VFB
Wire Wire Line
	4000 2800 3900 2800
Wire Wire Line
	4900 4700 4900 4600
Wire Wire Line
	4800 4600 5000 4600
Text GLabel 4800 4600 0    60   Input ~ 0
ICS
Text GLabel 3900 2600 0    60   Input ~ 0
ICS
Wire Wire Line
	4000 2600 3900 2600
Wire Wire Line
	4000 2400 3900 2400
Text GLabel 3900 2400 0    60   Input ~ 0
DIS
$Comp
L CONN_01X02 P2
U 1 1 571F22E8
P 5200 4550
F 0 "P2" H 5200 4700 50  0000 C CNN
F 1 "LED" V 5300 4550 50  0000 C CNN
F 2 "Local:Pin_Header_Straight_1x02" H 5200 4550 60  0001 C CNN
F 3 "" H 5200 4550 60  0000 C CNN
	1    5200 4550
	1    0    0    1   
$EndComp
Connection ~ 4900 4600
Wire Wire Line
	5000 4500 4900 4500
Wire Wire Line
	4900 4500 4900 4400
Text GLabel 4900 4400 1    60   Input ~ 0
VOUT
$Comp
L CONN_01X02 P1
U 1 1 571F2446
P 2300 4350
F 0 "P1" H 2300 4500 50  0000 C CNN
F 1 "PWR" V 2400 4350 50  0000 C CNN
F 2 "Local:Pin_Header_Straight_1x02" H 2300 4350 60  0001 C CNN
F 3 "" H 2300 4350 60  0000 C CNN
	1    2300 4350
	-1   0    0    1   
$EndComp
$Comp
L GND #PWR7
U 1 1 571F254B
P 2600 4500
F 0 "#PWR7" H 2600 4250 50  0001 C CNN
F 1 "GND" H 2600 4350 50  0000 C CNN
F 2 "" H 2600 4500 60  0000 C CNN
F 3 "" H 2600 4500 60  0000 C CNN
	1    2600 4500
	1    0    0    -1  
$EndComp
Text GLabel 2600 4200 1    60   Input ~ 0
VIN
Wire Wire Line
	2500 4300 2600 4300
Wire Wire Line
	2600 4300 2600 4200
Wire Wire Line
	2500 4400 2600 4400
Wire Wire Line
	2600 4400 2600 4500
Text Notes 5000 4900 0    60   ~ 0
R[CS]
Text Notes 4000 4400 0    60   ~ 0
R[2]
Text Notes 4000 4900 0    60   ~ 0
R[1]
Text Notes 6800 5150 0    60   ~ 0
/* V[OUT] selection (maxima) */\nEQ[U[STRIP]]: U[STRIP] = N * U[LED];\nPR[RED]: [U[LED] = 2.2];\nPR[BLUE]: [U[LED] = 3.4];\nEQ[U[STRIP]], PR[RED], N=14;\nEQ[U[STRIP]], PR[BLUE], N=7;
Text GLabel 4900 2800 2    60   Input ~ 0
VSW
$Comp
L CONN_01X02 P3
U 1 1 571F412E
P 3400 4350
F 0 "P3" H 3400 4500 50  0000 C CNN
F 1 "DIS" V 3500 4350 50  0000 C CNN
F 2 "Local:Pin_Header_Straight_1x02" H 3400 4350 60  0001 C CNN
F 3 "" H 3400 4350 60  0000 C CNN
	1    3400 4350
	1    0    0    1   
$EndComp
$Comp
L GND #PWR8
U 1 1 571F42D0
P 3100 4500
F 0 "#PWR8" H 3100 4250 50  0001 C CNN
F 1 "GND" H 3100 4350 50  0000 C CNN
F 2 "" H 3100 4500 60  0000 C CNN
F 3 "" H 3100 4500 60  0000 C CNN
	1    3100 4500
	1    0    0    -1  
$EndComp
Text GLabel 3100 4300 0    60   Input ~ 0
DIS
Wire Wire Line
	3200 4300 3100 4300
Wire Wire Line
	3200 4400 3100 4400
Wire Wire Line
	3100 4400 3100 4500
Wire Wire Line
	4400 3300 4400 3400
$Comp
L GND #PWR4
U 1 1 571F4770
P 4400 3400
F 0 "#PWR4" H 4400 3150 50  0001 C CNN
F 1 "GND" H 4400 3250 50  0000 C CNN
F 2 "" H 4400 3400 60  0000 C CNN
F 3 "" H 4400 3400 60  0000 C CNN
	1    4400 3400
	1    0    0    -1  
$EndComp
$EndSCHEMATC
